Travel Trends:HOW Do Americans Get Where Theyâ€™re Going?
…
Exploring the Area Type as an influence for choosing modes of travel

The above graph show that the area type showed to influence the mode of transportation people use. The proportion of people who lives in rural areas and never use BUS is 89% while the proportion of people never using BUS who live in urban areas is 77%. As per the use of TAXI, 82% of the people who lives in rural areas never use TAXI while for people living in urban areas this proportion is 63%. The proportions for WALK mode of transportation were 38% for people living in rural areas and never walking and 25% for people living in urban areas. Finally, the daily use of CAR was not influenced by the area type. The proportion of people using CAR daily is 80% for both area types.

# Table of Frequency proportions for each mode, level and variable
analysis %>%
  group_by(`Area Type`, mode, level)%>%
  summarize(n=n()) %>%
  mutate(Prop = n / sum(n))

## # A tibble: 40 x 5
## # Groups:   Area Type, mode [8]
##    `Area Type` mode  level                   n    Prop
##    <fct>       <chr> <chr>               <int>   <dbl>
##  1 Urban       BUS   A few times a month  2623 0.0307 
##  2 Urban       BUS   A few times a week   2053 0.0240 
##  3 Urban       BUS   A few times a year  13188 0.154  
##  4 Urban       BUS   Daily                1677 0.0196 
##  5 Urban       BUS   Never               65867 0.771  
##  6 Urban       CAR   A few times a month  1920 0.0225 
##  7 Urban       CAR   A few times a week  11690 0.137  
##  8 Urban       CAR   A few times a year    601 0.00704
##  9 Urban       CAR   Daily               68326 0.800  
## 10 Urban       CAR   Never                2871 0.0336 
## # ... with 30 more rows

analysis %>%
  group_by(HHSIZE, mode, level)%>%
  summarize(n=n()) %>%
  mutate(Prop = n / sum(n))

## # A tibble: 204 x 5
## # Groups:   HHSIZE, mode [52]
##    HHSIZE mode  level                  n  Prop
##    <fct>  <chr> <chr>              <int> <dbl>
##  1 13     BUS   Never                  1   1  
##  2 13     CAR   Daily                  1   1  
##  3 13     TAXI  Never                  1   1  
##  4 13     WALK  Never                  1   1  
##  5 12     BUS   Never                  2   1  
##  6 12     CAR   Daily                  2   1  
##  7 12     TAXI  A few times a year     1   0.5
##  8 12     TAXI  Never                  1   0.5
##  9 12     WALK  A few times a year     2   1  
## 10 11     BUS   Never                  4   1  
## # ... with 194 more rows

analysis %>%
  group_by(HHFAMINC, mode, level)%>%
  summarize(n=n()) %>%
  mutate(Prop = n / sum(n))

## # A tibble: 220 x 5
## # Groups:   HHFAMINC, mode [44]
##    HHFAMINC         mode  level                   n    Prop
##    <fct>            <chr> <chr>               <int>   <dbl>
##  1 $200,000 or more BUS   A few times a month   188 0.0274 
##  2 $200,000 or more BUS   A few times a week    110 0.0160 
##  3 $200,000 or more BUS   A few times a year   1209 0.176  
##  4 $200,000 or more BUS   Daily                  85 0.0124 
##  5 $200,000 or more BUS   Never                5270 0.768  
##  6 $200,000 or more CAR   A few times a month   143 0.0208 
##  7 $200,000 or more CAR   A few times a week    684 0.0997 
##  8 $200,000 or more CAR   A few times a year     32 0.00466
##  9 $200,000 or more CAR   Daily                5958 0.868  
## 10 $200,000 or more CAR   Never                  45 0.00656
## # ... with 210 more rows

analysis %>%
  group_by(TRAVDAY, mode, level)%>%
  summarize(n=n()) %>%
  mutate(Prop = n / sum(n))

## # A tibble: 140 x 5
## # Groups:   TRAVDAY, mode [28]
##    TRAVDAY mode  level                   n    Prop
##    <fct>   <chr> <chr>               <int>   <dbl>
##  1 Friday  BUS   A few times a month   394 0.0230 
##  2 Friday  BUS   A few times a week    338 0.0198 
##  3 Friday  BUS   A few times a year   2396 0.140  
##  4 Friday  BUS   Daily                 237 0.0139 
##  5 Friday  BUS   Never               13729 0.803  
##  6 Friday  CAR   A few times a month   386 0.0226 
##  7 Friday  CAR   A few times a week   2404 0.141  
##  8 Friday  CAR   A few times a year     91 0.00532
##  9 Friday  CAR   Daily               13751 0.804  
## 10 Friday  CAR   Never                 462 0.0270 
## # ... with 130 more rows
…
